EESchema Schematic File Version 4
EELAYER 26 0
EELAYER END
$Descr A4 11693 8268
encoding utf-8
Sheet 1 1
Title ""
Date ""
Rev ""
Comp ""
Comment1 ""
Comment2 ""
Comment3 ""
Comment4 ""
$EndDescr
$Comp
L Amplifier_Operational:TL072 U2
U 1 1 5CEBC1D4
P 5650 1800
F 0 "U2" H 5650 2167 50  0000 C CNN
F 1 "TL072" H 5650 2076 50  0000 C CNN
F 2 "Package_DIP:DIP-8_W7.62mm" H 5650 1800 50  0001 C CNN
F 3 "http://www.ti.com/lit/ds/symlink/tl071.pdf" H 5650 1800 50  0001 C CNN
	1    5650 1800
	1    0    0    -1  
$EndComp
$Comp
L Amplifier_Operational:TL072 U2
U 2 1 5CEBC2F5
P 5600 4350
F 0 "U2" H 5600 4717 50  0000 C CNN
F 1 "TL072" H 5600 4626 50  0000 C CNN
F 2 "Package_DIP:DIP-8_W7.62mm" H 5600 4350 50  0001 C CNN
F 3 "http://www.ti.com/lit/ds/symlink/tl071.pdf" H 5600 4350 50  0001 C CNN
	2    5600 4350
	1    0    0    -1  
$EndComp
$Comp
L Timer:NE555 U1
U 1 1 5CEBC3CE
P 2200 6550
F 0 "U1" H 2500 6150 50  0000 C CNN
F 1 "NE555" H 2200 6550 50  0000 C CNN
F 2 "Package_DIP:DIP-8_W7.62mm" H 2200 6550 50  0001 C CNN
F 3 "http://www.ti.com/lit/ds/symlink/ne555.pdf" H 2200 6550 50  0001 C CNN
	1    2200 6550
	1    0    0    -1  
$EndComp
$Comp
L Amplifier_Audio:LM386 U3
U 1 1 5CEBC4B0
P 8900 1500
F 0 "U3" H 9241 1546 50  0000 L CNN
F 1 "LM386" H 9241 1455 50  0000 L CNN
F 2 "Package_DIP:DIP-8_W7.62mm_LongPads" H 9000 1600 50  0001 C CNN
F 3 "http://www.ti.com/lit/ds/symlink/lm386.pdf" H 9100 1700 50  0001 C CNN
	1    8900 1500
	1    0    0    -1  
$EndComp
$Comp
L power:GND #PWR04
U 1 1 5CEBC6AF
P 2200 7050
F 0 "#PWR04" H 2200 6800 50  0001 C CNN
F 1 "GND" H 2205 6877 50  0000 C CNN
F 2 "" H 2200 7050 50  0001 C CNN
F 3 "" H 2200 7050 50  0001 C CNN
	1    2200 7050
	1    0    0    -1  
$EndComp
$Comp
L Device:R R1
U 1 1 5CEBC88A
P 2000 5850
F 0 "R1" V 1793 5850 50  0000 C CNN
F 1 "6k2" H 1884 5850 50  0000 C CNN
F 2 "Resistor_THT:R_Axial_DIN0204_L3.6mm_D1.6mm_P2.54mm_Vertical" V 1930 5850 50  0001 C CNN
F 3 "~" H 2000 5850 50  0001 C CNN
	1    2000 5850
	0    1    1    0   
$EndComp
$Comp
L Device:C C1
U 1 1 5CEBC912
P 1150 6550
F 0 "C1" H 1265 6596 50  0000 L CNN
F 1 "220p" H 1265 6505 50  0000 L CNN
F 2 "Capacitor_THT:C_Disc_D3.0mm_W1.6mm_P2.50mm" H 1188 6400 50  0001 C CNN
F 3 "~" H 1150 6550 50  0001 C CNN
	1    1150 6550
	1    0    0    -1  
$EndComp
$Comp
L power:GND #PWR01
U 1 1 5CEBC979
P 1150 6950
F 0 "#PWR01" H 1150 6700 50  0001 C CNN
F 1 "GND" H 1155 6777 50  0000 C CNN
F 2 "" H 1150 6950 50  0001 C CNN
F 3 "" H 1150 6950 50  0001 C CNN
	1    1150 6950
	1    0    0    -1  
$EndComp
Wire Wire Line
	1150 6950 1150 6700
Wire Wire Line
	1150 6400 1150 6350
Wire Wire Line
	2800 5850 2800 6350
Wire Wire Line
	2800 6350 2700 6350
NoConn ~ 1700 6750
NoConn ~ 1700 6550
Wire Wire Line
	2700 6750 2800 6750
Wire Wire Line
	2800 6750 2800 7300
$Comp
L Device:R R4
U 1 1 5CEBCC81
P 3200 6100
F 0 "R4" H 3270 6146 50  0000 L CNN
F 1 "4k7" H 3270 6055 50  0000 L CNN
F 2 "Resistor_THT:R_Axial_DIN0204_L3.6mm_D1.6mm_P2.54mm_Vertical" V 3130 6100 50  0001 C CNN
F 3 "~" H 3200 6100 50  0001 C CNN
	1    3200 6100
	1    0    0    -1  
$EndComp
Wire Wire Line
	3200 6250 3200 6550
Wire Wire Line
	3200 6550 2700 6550
$Comp
L Device:R R6
U 1 1 5CEBCEBD
P 3750 6400
F 0 "R6" V 3543 6400 50  0000 C CNN
F 1 "20k" V 3634 6400 50  0000 C CNN
F 2 "Resistor_THT:R_Axial_DIN0204_L3.6mm_D1.6mm_P2.54mm_Vertical" V 3680 6400 50  0001 C CNN
F 3 "~" H 3750 6400 50  0001 C CNN
	1    3750 6400
	0    1    1    0   
$EndComp
$Comp
L Device:R R7
U 1 1 5CEBCEFC
P 3750 6700
F 0 "R7" V 3957 6700 50  0000 C CNN
F 1 "20k" V 3866 6700 50  0000 C CNN
F 2 "Resistor_THT:R_Axial_DIN0204_L3.6mm_D1.6mm_P2.54mm_Vertical" V 3680 6700 50  0001 C CNN
F 3 "~" H 3750 6700 50  0001 C CNN
	1    3750 6700
	0    -1   -1   0   
$EndComp
Wire Wire Line
	3600 6400 3550 6400
Wire Wire Line
	3550 6700 3600 6700
Wire Wire Line
	3550 6550 3200 6550
Connection ~ 3200 6550
Wire Wire Line
	3550 6400 3550 6550
Wire Wire Line
	3550 6550 3550 6700
Connection ~ 3550 6550
Text Notes 1750 7450 0    50   ~ 0
Square wave generator.
$Comp
L Device:R_Variable R2
U 1 1 5CEBE941
P 2500 5850
F 0 "R2" V 2765 5850 50  0000 C CNN
F 1 "R_Variable" V 2674 5850 50  0000 C CNN
F 2 "" V 2430 5850 50  0001 C CNN
F 3 "~" H 2500 5850 50  0001 C CNN
	1    2500 5850
	0    -1   -1   0   
$EndComp
Wire Wire Line
	2150 5850 2350 5850
Wire Wire Line
	2650 5850 2800 5850
Wire Wire Line
	1150 6350 1550 6350
Wire Wire Line
	1550 5850 1550 6350
Wire Wire Line
	1550 5850 1850 5850
Connection ~ 1550 6350
Wire Wire Line
	1550 6350 1700 6350
Wire Wire Line
	1550 6350 1550 7300
Wire Wire Line
	1550 7300 2800 7300
$Comp
L Device:Microphone_Ultrasound MK1
U 1 1 5CEBF8B9
P 1650 2300
F 0 "MK1" H 1780 2346 50  0000 L CNN
F 1 "Microphone_Ultrasound" H 1780 2255 50  0000 L CNN
F 2 "" V 1700 2230 50  0001 L CNN
F 3 "~" V 1650 2400 50  0001 C CNN
	1    1650 2300
	1    0    0    -1  
$EndComp
$Comp
L power:GND #PWR02
U 1 1 5CEBF9A1
P 1650 2700
F 0 "#PWR02" H 1650 2450 50  0001 C CNN
F 1 "GND" H 1655 2527 50  0000 C CNN
F 2 "" H 1650 2700 50  0001 C CNN
F 3 "" H 1650 2700 50  0001 C CNN
	1    1650 2700
	1    0    0    -1  
$EndComp
Wire Wire Line
	1650 2500 1650 2700
$Comp
L Device:C C2
U 1 1 5CEBFDBD
P 2200 2000
F 0 "C2" V 1948 2000 50  0000 C CNN
F 1 "470p" V 2039 2000 50  0000 C CNN
F 2 "Capacitor_THT:C_Disc_D3.0mm_W1.6mm_P2.50mm" H 2238 1850 50  0001 C CNN
F 3 "~" H 2200 2000 50  0001 C CNN
	1    2200 2000
	0    1    1    0   
$EndComp
Wire Wire Line
	1650 2100 1650 2000
Wire Wire Line
	1650 2000 2050 2000
$Comp
L Transistor_BJT:BC548 Q1
U 1 1 5CEC044F
P 3350 2000
F 0 "Q1" H 3541 2046 50  0000 L CNN
F 1 "BC548" H 3541 1955 50  0000 L CNN
F 2 "Package_TO_SOT_THT:TO-92_Inline" H 3550 1925 50  0001 L CIN
F 3 "http://www.fairchildsemi.com/ds/BC/BC547.pdf" H 3350 2000 50  0001 L CNN
	1    3350 2000
	1    0    0    -1  
$EndComp
$Comp
L power:GND #PWR07
U 1 1 5CEC0504
P 3450 2700
F 0 "#PWR07" H 3450 2450 50  0001 C CNN
F 1 "GND" H 3455 2527 50  0000 C CNN
F 2 "" H 3450 2700 50  0001 C CNN
F 3 "" H 3450 2700 50  0001 C CNN
	1    3450 2700
	1    0    0    -1  
$EndComp
$Comp
L power:VCC #PWR06
U 1 1 5CEC0A20
P 3450 1200
F 0 "#PWR06" H 3450 1050 50  0001 C CNN
F 1 "VCC" H 3467 1373 50  0000 C CNN
F 2 "" H 3450 1200 50  0001 C CNN
F 3 "" H 3450 1200 50  0001 C CNN
	1    3450 1200
	1    0    0    -1  
$EndComp
$Comp
L Device:R R5
U 1 1 5CEC0A7E
P 3450 1450
F 0 "R5" H 3520 1496 50  0000 L CNN
F 1 "20k" H 3520 1405 50  0000 L CNN
F 2 "Resistor_THT:R_Axial_DIN0204_L3.6mm_D1.6mm_P2.54mm_Vertical" V 3380 1450 50  0001 C CNN
F 3 "~" H 3450 1450 50  0001 C CNN
	1    3450 1450
	1    0    0    -1  
$EndComp
$Comp
L Device:R R3
U 1 1 5CEC0B25
P 3200 1700
F 0 "R3" V 2993 1700 50  0000 C CNN
F 1 "100k" V 3084 1700 50  0000 C CNN
F 2 "Resistor_THT:R_Axial_DIN0204_L3.6mm_D1.6mm_P2.54mm_Vertical" V 3130 1700 50  0001 C CNN
F 3 "~" H 3200 1700 50  0001 C CNN
	1    3200 1700
	0    1    1    0   
$EndComp
Wire Wire Line
	3450 1200 3450 1300
Wire Wire Line
	3450 1600 3450 1700
Wire Wire Line
	3350 1700 3450 1700
Connection ~ 3450 1700
Wire Wire Line
	3450 1700 3450 1800
Wire Wire Line
	3050 1700 2900 1700
Wire Wire Line
	2900 1700 2900 2000
Wire Wire Line
	2900 2000 3150 2000
Wire Wire Line
	2350 2000 2900 2000
Connection ~ 2900 2000
Wire Wire Line
	3450 2200 3450 2700
Text Notes 2800 3250 0    50   ~ 0
microphone pre-amplifier
Wire Wire Line
	3450 1700 4050 1700
$Comp
L Device:C C3
U 1 1 5CEC3765
P 4200 1700
F 0 "C3" V 4452 1700 50  0000 C CNN
F 1 "330p" V 4361 1700 50  0000 C CNN
F 2 "Capacitor_THT:C_Disc_D3.0mm_W1.6mm_P2.50mm" H 4238 1550 50  0001 C CNN
F 3 "~" H 4200 1700 50  0001 C CNN
	1    4200 1700
	0    -1   -1   0   
$EndComp
$Comp
L Device:R R10
U 1 1 5CEC48E2
P 5700 2150
F 0 "R10" V 5493 2150 50  0000 C CNN
F 1 "470k" V 5584 2150 50  0000 C CNN
F 2 "Resistor_THT:R_Axial_DIN0204_L3.6mm_D1.6mm_P2.54mm_Vertical" V 5630 2150 50  0001 C CNN
F 3 "~" H 5700 2150 50  0001 C CNN
	1    5700 2150
	0    1    1    0   
$EndComp
Wire Wire Line
	5950 1800 6050 1800
Wire Wire Line
	5350 1900 5200 1900
Wire Wire Line
	5200 1900 5200 2150
Wire Wire Line
	5200 2150 5550 2150
Wire Wire Line
	5850 2150 6050 2150
Wire Wire Line
	6050 2150 6050 1800
Connection ~ 6050 1800
Wire Wire Line
	6050 1800 6350 1800
$Comp
L power:VCC #PWR08
U 1 1 5CEC6614
P 4750 1150
F 0 "#PWR08" H 4750 1000 50  0001 C CNN
F 1 "VCC" H 4767 1323 50  0000 C CNN
F 2 "" H 4750 1150 50  0001 C CNN
F 3 "" H 4750 1150 50  0001 C CNN
	1    4750 1150
	1    0    0    -1  
$EndComp
$Comp
L power:GND #PWR09
U 1 1 5CEC6734
P 4750 2400
F 0 "#PWR09" H 4750 2150 50  0001 C CNN
F 1 "GND" H 4755 2227 50  0000 C CNN
F 2 "" H 4750 2400 50  0001 C CNN
F 3 "" H 4750 2400 50  0001 C CNN
	1    4750 2400
	1    0    0    -1  
$EndComp
$Comp
L Device:R R8
U 1 1 5CEC67B0
P 4750 1400
F 0 "R8" H 4820 1446 50  0000 L CNN
F 1 "20k" H 4820 1355 50  0000 L CNN
F 2 "Resistor_THT:R_Axial_DIN0204_L3.6mm_D1.6mm_P2.54mm_Vertical" V 4680 1400 50  0001 C CNN
F 3 "~" H 4750 1400 50  0001 C CNN
	1    4750 1400
	1    0    0    -1  
$EndComp
$Comp
L Device:R R9
U 1 1 5CEC6879
P 4750 2100
F 0 "R9" H 4820 2146 50  0000 L CNN
F 1 "20k" H 4820 2055 50  0000 L CNN
F 2 "Resistor_THT:R_Axial_DIN0204_L3.6mm_D1.6mm_P2.54mm_Vertical" V 4680 2100 50  0001 C CNN
F 3 "~" H 4750 2100 50  0001 C CNN
	1    4750 2100
	1    0    0    -1  
$EndComp
Wire Wire Line
	4750 2400 4750 2250
Wire Wire Line
	4750 1950 4750 1700
Wire Wire Line
	4750 1250 4750 1150
Wire Wire Line
	5350 1700 4750 1700
Connection ~ 4750 1700
Wire Wire Line
	4750 1700 4750 1550
Wire Wire Line
	4350 1700 4750 1700
$Comp
L Transistor_BJT:BC548 Q2
U 1 1 5CECB526
P 5100 3050
F 0 "Q2" H 5291 3096 50  0000 L CNN
F 1 "BC548" H 5291 3005 50  0000 L CNN
F 2 "Package_TO_SOT_THT:TO-92_Inline" H 5300 2975 50  0001 L CIN
F 3 "http://www.fairchildsemi.com/ds/BC/BC547.pdf" H 5100 3050 50  0001 L CNN
	1    5100 3050
	1    0    0    -1  
$EndComp
$Comp
L Device:C C4
U 1 1 5CECB6A7
P 5200 2500
F 0 "C4" H 5085 2454 50  0000 R CNN
F 1 "3n3" H 5085 2545 50  0000 R CNN
F 2 "Capacitor_THT:C_Disc_D3.0mm_W2.0mm_P2.50mm" H 5238 2350 50  0001 C CNN
F 3 "~" H 5200 2500 50  0001 C CNN
	1    5200 2500
	-1   0    0    1   
$EndComp
Wire Wire Line
	5200 2150 5200 2350
Connection ~ 5200 2150
Wire Wire Line
	5200 2650 5200 2850
$Comp
L power:GND #PWR010
U 1 1 5CECC94C
P 5200 3400
F 0 "#PWR010" H 5200 3150 50  0001 C CNN
F 1 "GND" H 5205 3227 50  0000 C CNN
F 2 "" H 5200 3400 50  0001 C CNN
F 3 "" H 5200 3400 50  0001 C CNN
	1    5200 3400
	1    0    0    -1  
$EndComp
Wire Wire Line
	5200 3400 5200 3250
$Comp
L Device:R R11
U 1 1 5CED116A
P 6500 1800
F 0 "R11" V 6293 1800 50  0000 C CNN
F 1 "4k7" V 6384 1800 50  0000 C CNN
F 2 "Resistor_THT:R_Axial_DIN0204_L3.6mm_D1.6mm_P2.54mm_Vertical" V 6430 1800 50  0001 C CNN
F 3 "~" H 6500 1800 50  0001 C CNN
	1    6500 1800
	0    1    1    0   
$EndComp
$Comp
L Device:C C5
U 1 1 5CED1C50
P 6800 2000
F 0 "C5" H 6915 2046 50  0000 L CNN
F 1 "4n7" H 6915 1955 50  0000 L CNN
F 2 "Capacitor_THT:C_Disc_D3.4mm_W2.1mm_P2.50mm" H 6838 1850 50  0001 C CNN
F 3 "~" H 6800 2000 50  0001 C CNN
	1    6800 2000
	1    0    0    -1  
$EndComp
$Comp
L power:GND #PWR013
U 1 1 5CED1CE9
P 6800 2250
F 0 "#PWR013" H 6800 2000 50  0001 C CNN
F 1 "GND" H 6805 2077 50  0000 C CNN
F 2 "" H 6800 2250 50  0001 C CNN
F 3 "" H 6800 2250 50  0001 C CNN
	1    6800 2250
	1    0    0    -1  
$EndComp
Wire Wire Line
	6650 1800 6800 1800
Wire Wire Line
	6800 1800 6800 1850
Wire Wire Line
	6800 2150 6800 2250
$Comp
L Device:C C6
U 1 1 5CED31E2
P 7250 1800
F 0 "C6" V 6998 1800 50  0000 C CNN
F 1 "1n" V 7089 1800 50  0000 C CNN
F 2 "Capacitor_THT:C_Disc_D3.4mm_W2.1mm_P2.50mm" H 7288 1650 50  0001 C CNN
F 3 "~" H 7250 1800 50  0001 C CNN
	1    7250 1800
	0    1    1    0   
$EndComp
Wire Wire Line
	6800 1800 7100 1800
Connection ~ 6800 1800
$Comp
L Device:R_POT_Dual RV1
U 1 1 5CED78E1
P 7950 1850
F 0 "RV1" V 7904 1662 50  0000 R CNN
F 1 "R_POT_Dual" V 7995 1662 50  0000 R CNN
F 2 "" H 8200 1775 50  0001 C CNN
F 3 "~" H 8200 1775 50  0001 C CNN
	1    7950 1850
	0    1    1    0   
$EndComp
$Comp
L power:GND #PWR014
U 1 1 5CED7B90
P 8200 2250
F 0 "#PWR014" H 8200 2000 50  0001 C CNN
F 1 "GND" H 8205 2077 50  0000 C CNN
F 2 "" H 8200 2250 50  0001 C CNN
F 3 "" H 8200 2250 50  0001 C CNN
	1    8200 2250
	1    0    0    -1  
$EndComp
Wire Wire Line
	7850 1450 7850 1200
Wire Wire Line
	7850 1750 7850 1800
Wire Wire Line
	7400 1800 7850 1800
Wire Notes Line
	1150 3500 1150 900 
Wire Notes Line
	1150 900  4050 900 
Wire Notes Line
	4050 900  4050 3500
Wire Notes Line
	4050 3500 1150 3500
Wire Notes Line
	800  5450 800  7550
Wire Notes Line
	3500 7550 3500 5450
Wire Notes Line
	800  7550 3500 7550
Wire Notes Line
	800  5450 3500 5450
Text Label 3950 6400 0    50   ~ 0
square_wave_1
Wire Wire Line
	3950 6400 3900 6400
Wire Wire Line
	3900 6700 3950 6700
Text Label 3950 6700 0    50   ~ 0
square_wave_2
Wire Wire Line
	4700 3050 4900 3050
Text Label 4700 3050 2    50   ~ 0
square_wave_1
Wire Wire Line
	8600 1400 8450 1400
Wire Wire Line
	8450 1400 8450 1950
Wire Wire Line
	8450 1950 8800 1950
Connection ~ 8800 1950
Wire Wire Line
	8800 1950 8800 1800
NoConn ~ 8900 1800
NoConn ~ 9000 1800
NoConn ~ 8900 1200
$Comp
L Device:CP C7
U 1 1 5CEED813
P 9700 1500
F 0 "C7" V 9955 1500 50  0000 C CNN
F 1 "1u" V 9864 1500 50  0000 C CNN
F 2 "Capacitor_THT:CP_Radial_D10.0mm_P2.50mm" H 9738 1350 50  0001 C CNN
F 3 "~" H 9700 1500 50  0001 C CNN
	1    9700 1500
	0    -1   -1   0   
$EndComp
Wire Wire Line
	9550 1500 9200 1500
$Comp
L Device:Speaker LS1
U 1 1 5CEEEA55
P 10200 1500
F 0 "LS1" H 10370 1496 50  0000 L CNN
F 1 "Speaker" H 10370 1405 50  0000 L CNN
F 2 "" H 10200 1300 50  0001 C CNN
F 3 "~" H 10190 1450 50  0001 C CNN
	1    10200 1500
	1    0    0    -1  
$EndComp
Wire Wire Line
	8050 1600 8600 1600
Wire Wire Line
	10000 1500 9850 1500
Wire Wire Line
	9900 1600 10000 1600
$Comp
L Amplifier_Operational:TL072 U2
U 3 1 5CF01602
P 6150 7050
F 0 "U2" H 6108 7096 50  0000 L CNN
F 1 "TL072" H 6108 7005 50  0000 L CNN
F 2 "Package_DIP:DIP-8_W7.62mm" H 6150 7050 50  0001 C CNN
F 3 "http://www.ti.com/lit/ds/symlink/tl071.pdf" H 6150 7050 50  0001 C CNN
	3    6150 7050
	1    0    0    -1  
$EndComp
$Comp
L power:GND #PWR012
U 1 1 5CF01979
P 6050 7450
F 0 "#PWR012" H 6050 7200 50  0001 C CNN
F 1 "GND" H 6055 7277 50  0000 C CNN
F 2 "" H 6050 7450 50  0001 C CNN
F 3 "" H 6050 7450 50  0001 C CNN
	1    6050 7450
	1    0    0    -1  
$EndComp
Wire Wire Line
	6050 7450 6050 7350
$Comp
L power:VCC #PWR0101
U 1 1 5CF05242
P 8800 1150
F 0 "#PWR0101" H 8800 1000 50  0001 C CNN
F 1 "VCC" H 8817 1323 50  0000 C CNN
F 2 "" H 8800 1150 50  0001 C CNN
F 3 "" H 8800 1150 50  0001 C CNN
	1    8800 1150
	1    0    0    -1  
$EndComp
Wire Wire Line
	8800 1150 8800 1200
NoConn ~ 3950 6700
NoConn ~ 5300 4250
NoConn ~ 5300 4450
NoConn ~ 5900 4350
NoConn ~ 7850 1950
NoConn ~ 8050 2100
Wire Wire Line
	2200 6950 2200 7050
$Comp
L power:GND #PWR0102
U 1 1 5CF1E5A7
P 8800 2200
F 0 "#PWR0102" H 8800 1950 50  0001 C CNN
F 1 "GND" H 8805 2027 50  0000 C CNN
F 2 "" H 8800 2200 50  0001 C CNN
F 3 "" H 8800 2200 50  0001 C CNN
	1    8800 2200
	1    0    0    -1  
$EndComp
Wire Wire Line
	8800 1950 8800 2200
$Comp
L power:GND #PWR0103
U 1 1 5CF1FD26
P 9900 1800
F 0 "#PWR0103" H 9900 1550 50  0001 C CNN
F 1 "GND" H 9905 1627 50  0000 C CNN
F 2 "" H 9900 1800 50  0001 C CNN
F 3 "" H 9900 1800 50  0001 C CNN
	1    9900 1800
	1    0    0    -1  
$EndComp
Wire Wire Line
	9900 1600 9900 1800
$Comp
L power:VCC #PWR0104
U 1 1 5CF22DCA
P 2200 6050
F 0 "#PWR0104" H 2200 5900 50  0001 C CNN
F 1 "VCC" H 2217 6223 50  0000 C CNN
F 2 "" H 2200 6050 50  0001 C CNN
F 3 "" H 2200 6050 50  0001 C CNN
	1    2200 6050
	1    0    0    -1  
$EndComp
Wire Wire Line
	2200 6050 2200 6150
$Comp
L power:VCC #PWR0105
U 1 1 5CF2455A
P 3200 5800
F 0 "#PWR0105" H 3200 5650 50  0001 C CNN
F 1 "VCC" H 3217 5973 50  0000 C CNN
F 2 "" H 3200 5800 50  0001 C CNN
F 3 "" H 3200 5800 50  0001 C CNN
	1    3200 5800
	1    0    0    -1  
$EndComp
Wire Wire Line
	3200 5800 3200 5950
$Comp
L power:VCC #PWR0106
U 1 1 5CF25E07
P 6050 6650
F 0 "#PWR0106" H 6050 6500 50  0001 C CNN
F 1 "VCC" H 6067 6823 50  0000 C CNN
F 2 "" H 6050 6650 50  0001 C CNN
F 3 "" H 6050 6650 50  0001 C CNN
	1    6050 6650
	1    0    0    -1  
$EndComp
Wire Wire Line
	6050 6650 6050 6750
$Comp
L power:VCC #PWR0107
U 1 1 5CF27D0E
P 5000 6650
F 0 "#PWR0107" H 5000 6500 50  0001 C CNN
F 1 "VCC" H 5017 6823 50  0000 C CNN
F 2 "" H 5000 6650 50  0001 C CNN
F 3 "" H 5000 6650 50  0001 C CNN
	1    5000 6650
	1    0    0    -1  
$EndComp
$Comp
L power:PWR_FLAG #FLG0101
U 1 1 5CF27E2C
P 5000 6850
F 0 "#FLG0101" H 5000 6925 50  0001 C CNN
F 1 "PWR_FLAG" H 5000 7023 50  0000 C CNN
F 2 "" H 5000 6850 50  0001 C CNN
F 3 "~" H 5000 6850 50  0001 C CNN
	1    5000 6850
	-1   0    0    1   
$EndComp
Wire Wire Line
	5000 6850 5000 6650
$Comp
L power:GND #PWR0108
U 1 1 5CF29809
P 5400 6850
F 0 "#PWR0108" H 5400 6600 50  0001 C CNN
F 1 "GND" H 5405 6677 50  0000 C CNN
F 2 "" H 5400 6850 50  0001 C CNN
F 3 "" H 5400 6850 50  0001 C CNN
	1    5400 6850
	1    0    0    -1  
$EndComp
$Comp
L power:PWR_FLAG #FLG0102
U 1 1 5CF29951
P 5400 6650
F 0 "#FLG0102" H 5400 6725 50  0001 C CNN
F 1 "PWR_FLAG" H 5400 6824 50  0000 C CNN
F 2 "" H 5400 6650 50  0001 C CNN
F 3 "~" H 5400 6650 50  0001 C CNN
	1    5400 6650
	1    0    0    -1  
$EndComp
Wire Wire Line
	5400 6650 5400 6850
Wire Wire Line
	8200 1200 8200 1900
Wire Wire Line
	7850 1200 8200 1200
Wire Wire Line
	7850 1950 7850 1900
Wire Wire Line
	7850 1900 8200 1900
Connection ~ 8200 1900
Wire Wire Line
	8200 1900 8200 2250
$EndSCHEMATC
